   _____ _____  _____
  / ____|  __ \|  __ \
 | |    | |  | | |__) |
 | |    | |  | |  ___/
 | |____| |__| | |
  \_____|_____/|_|

powered by
   ____  ___    ___    __  ___  ____
  / __/ / _ \  / _ |  /  |/  / / __/
 / _/  / , _/ / __ | / /|_/ / / _/  
/_/   /_/|_| /_/ |_|/_/  /_/ /___/ 

Support through FRAME Helpdesk: 
http://frame.intranet.commerzbank.com/helpdesk
